Text Analysis • ctrialsgov
…
There are some other options that can be used to change the way that the output is displayed. The default (shown above) prints the results out using the cat function. Other options return the results as a character vector of data frame, which are useful for further post-processing. There is also a flag use_color that prints the term in color rather than with pipes; it looks great in a terminal or RStudio but does not display correctly when knit to HTML.

TF-IDF

We can use a technique called term frequence-inverse document frequency (TF-IDF) to determine the most important words in a collection of of text fields. To implement this in R we will use the ctgov_tfidf function:

z <- ctrialsgov::ctgov_query()
tfidf <- ctgov_tfidf(z$description)
print(tfidf, n = 30)

## # A tibble: 7,440 x 2
##      doc terms                                                     
##    <int> <chr>                                                     
##  1     0 wound|colonization|bacteria|ped|observe                   
##  2     1 co2|insufflation|surgery|surgical|instruments             
##  3     2 mask|exertion|hypoxia|oxygenation|rest                    
##  4     3 rich|platelet|plasma|centrifuge|frontal                   
##  5     4 structural|heart|indicators|nursing|nurses                
##  6     5 depleted|conditioning|donor|stem|infusion                 
##  7     6 interferes|passed|tell|molecule|binding                   
##  8     7 positions|input|four|performances|cs                      
##  9     8 dash|scfa|diet|gut|bile                                   
## 10     9 tremelimumab|durvalumab|hypofractionated|radiation|signals
## 11    10 asp8374|cemiplimab|portion|names|combination              
## 12    11 epa|exploring|behavioural|otherwise|supplement            
## 13    12 prevalence|cultures|species|diarrhea|true                 
## 14    13 peep|apnoea|immediately|ventilation|manually              
## 15    14 postnatal|appropriateness|project|wellbeing|cultural      
## 16    15 tooth|bridge|preparation|dental|prosthesis                
## 17    16 cervical|narrative|screening|grounded|culturally          
## 18    17 immigrants|problem|behavioral|stress|plus                 
## 19    18 venetoclax|dasatinib|prednisone|rituximab|philadelphia    
## 20    19 theoretical|bipolar|depressive|suggested|effect           
## 21    20 mindfulness|trainees|burnout|programs|online              
## 22    21 t2d|liraglutide|adolescents|obesity|β                     
## 23    22 tranexamic|de|bleeding|acid|evacuation                    
## 24    23 cystic|fibrosis|pregnancy|cftr|modulators                 
## 25    24 flim|specimen|lumpectomy|specimens|diseased               
## 26    25 biomechanical|match|sport|traumatic|event                 
## 27    26 rai|cirrhosis|pathophysiologic|adrenal|decompensated      
## 28    27 endarterectomy|carotid|oxygenation|regional|cerebral      
## 29    28 ct|tomography|perfusion|emission|rest                     
## 30    29 operative|elective|persistent|post|opioid                 
## # … with 7,410 more rows

The default takes the lower case version of the terms, but (particularly with acronyms) it may be better to preserve the capitalization of the terms. Here is how we can do that in this example:

tfidf <- ctgov_tfidf(z$description, tolower = FALSE)
print(tfidf, n = 30)

## # A tibble: 7,440 x 2
##      doc terms                                                     
##    <int> <chr>                                                     
##  1     0 wound|colonization|bacteria|PED|observe                   
##  2     1 CO2|insufflation|surgery|surgical|Laparoscopic            
##  3     2 mask|exertion|hypoxia|oxygenation|rest                    
##  4     3 rich|platelet|plasma|centrifuge|Easy                      
##  5     4 nursing|indicators|nurses|structural|assisted             
##  6     5 depleted|conditioning|donor|stem|infusion                 
##  7     6 passed|tell|molecule|binding|cell                         
##  8     7 positions|input|four|performances|methods                 
##  9     8 DASH|diet|bile|gut|American                               
## 10     9 tremelimumab|durvalumab|radiation|signals|immune          
## 11    10 ASP8374|cemiplimab|portion|combination|second             
## 12    11 EPA|university|exploring|behavioural|otherwise            
## 13    12 prevalence|Determination|Hospitals|cultures|diarrhea      
## 14    13 PEEP|apnoea|immediately|ventilation|manually              
## 15    14 appropriateness|postnatal|project|wellbeing|cultural      
## 16    15 tooth|bridge|preparation|dental|prosthesis                
## 17    16 cervical|screening|grounded|culturally|theory             
## 18    17 Plus|Management|behavioral|stress|Goal                    
## 19    18 prednisone|venetoclax|dasatinib|Philadelphia|lymphoblastic
## 20    19 theoretical|bipolar|depressive|suggested|effect           
## 21    20 mindfulness|trainees|burnout|programs|online              
## 22    21 T2D|Liraglutide|adolescents|obesity|β                     
## 23    22 DE|tranexamic|bleeding|acid|evacuation                    
## 24    23 cystic|fibrosis|pregnancy|CFTR|conductance                
## 25    24 FLIM|specimen|lumpectomy|specimens|diseased               
## 26    25 biomechanical|match|sport|traumatic|event                 
## 27    26 cirrhosis|decompensated|adrenal|outpatients|insufficiency 
## 28    27 Volume|Regional|Brain|cerebral|Blood                      
## 29    28 CT|perfusion|rest|tomography|CTCA                         
## 30    29 operative|elective|post|opioid|key                        
## # … with 7,410 more rows
…
